#Command: "C:\Program Files (x86)\Microsoft Visual Studio\2019\Community\VC\Tools\MSVC\14.28.29333\bin\HostX64\x86\link.exe" /ERRORREPORT:PROMPT @C:\Users\dillo\AppData\Local\Temp\tmp3e7cddfd2ee94b6cb172c02369492564.rsp
^C:\USERS\DILLO\DESKTOP\MXINT\PROJ.WIN32\MXINT.DIR\DEBUG\APPDELEGATE.OBJ|C:\USERS\DILLO\DESKTOP\MXINT\PROJ.WIN32\MXINT.DIR\DEBUG\BIRD.OBJ|C:\USERS\DILLO\DESKTOP\MXINT\PROJ.WIN32\MXINT.DIR\DEBUG\GAME.RES|C:\USERS\DILLO\DESKTOP\MXINT\PROJ.WIN32\MXINT.DIR\DEBUG\GAMEOVERSCENE.OBJ|C:\USERS\DILLO\DESKTOP\MXINT\PROJ.WIN32\MXINT.DIR\DEBUG\GAMESCENE.OBJ|C:\USERS\DILLO\DESKTOP\MXINT\PROJ.WIN32\MXINT.DIR\DEBUG\MAIN.OBJ|C:\USERS\DILLO\DESKTOP\MXINT\PROJ.WIN32\MXINT.DIR\DEBUG\MAINMENUSCENE.OBJ|C:\USERS\DILLO\DESKTOP\MXINT\PROJ.WIN32\MXINT.DIR\DEBUG\PIPE.OBJ|C:\USERS\DILLO\DESKTOP\MXINT\PROJ.WIN32\MXINT.DIR\DEBUG\PRECHEADER.OBJ|C:\USERS\DILLO\DESKTOP\MXINT\PROJ.WIN32\MXINT.DIR\DEBUG\SPLASHSCENE.OBJ
C:\USERS\DILLO\APPDATA\LOCAL\TEMP\LNK{F2D35447-1A4A-4B71-A0F2-BC27DC60FD27}.TMP
