^C:\USERS\DILLO\DESKTOP\MXINT\PROJ.WIN32\MXINT.DIR\DEBUG\APPDELEGATE.OBJ|C:\USERS\DILLO\DESKTOP\MXINT\PROJ.WIN32\MXINT.DIR\DEBUG\BIRD.OBJ|C:\USERS\DILLO\DESKTOP\MXINT\PROJ.WIN32\MXINT.DIR\DEBUG\GAME.RES|C:\USERS\DILLO\DESKTOP\MXINT\PROJ.WIN32\MXINT.DIR\DEBUG\GAMEOVERSCENE.OBJ|C:\USERS\DILLO\DESKTOP\MXINT\PROJ.WIN32\MXINT.DIR\DEBUG\GAMESCENE.OBJ|C:\USERS\DILLO\DESKTOP\MXINT\PROJ.WIN32\MXINT.DIR\DEBUG\MAIN.OBJ|C:\USERS\DILLO\DESKTOP\MXINT\PROJ.WIN32\MXINT.DIR\DEBUG\MAINMENUSCENE.OBJ|C:\USERS\DILLO\DESKTOP\MXINT\PROJ.WIN32\MXINT.DIR\DEBUG\PIPE.OBJ|C:\USERS\DILLO\DESKTOP\MXINT\PROJ.WIN32\MXINT.DIR\DEBUG\PRECHEADER.OBJ|C:\USERS\DILLO\DESKTOP\MXINT\PROJ.WIN32\MXINT.DIR\DEBUG\SPLASHSCENE.OBJ
C:\USERS\DILLO\DESKTOP\MXINT\PROJ.WIN32\LIB\DEBUG\COCOS2D.LIB
C:\USERS\DILLO\DESKTOP\MXINT\PROJ.WIN32\LIB\DEBUG\EXTERNAL.LIB
C:\USERS\DILLO\DESKTOP\MXINT\COCOS2D\EXTERNAL\BOX2D\PREBUILT\WIN32\DEBUG\LIBBOX2D.LIB
C:\USERS\DILLO\DESKTOP\MXINT\COCOS2D\EXTERNAL\CHIPMUNK\PREBUILT\WIN32\DEBUG-LIB\LIBCHIPMUNK.LIB
C:\USERS\DILLO\DESKTOP\MXINT\COCOS2D\EXTERNAL\FREETYPE2\PREBUILT\WIN32\FREETYPE.LIB
C:\USERS\DILLO\DESKTOP\MXINT\PROJ.WIN32\LIB\DEBUG\EXT_RECAST.LIB
C:\USERS\DILLO\DESKTOP\MXINT\COCOS2D\EXTERNAL\BULLET\PREBUILT\WIN32\DEBUG\LIBBULLET.LIB
C:\USERS\DILLO\DESKTOP\MXINT\COCOS2D\EXTERNAL\JPEG\PREBUILT\WIN32\LIBJPEG.LIB
C:\USERS\DILLO\DESKTOP\MXINT\COCOS2D\EXTERNAL\WEBP\PREBUILT\WIN32\LIBWEBP.LIB
C:\USERS\DILLO\DESKTOP\MXINT\COCOS2D\EXTERNAL\WEBSOCKETS\PREBUILT\WIN32\WEBSOCKETS.LIB
C:\USERS\DILLO\DESKTOP\MXINT\COCOS2D\EXTERNAL\OPENSSL\PREBUILT\WIN32\LIBSSL.LIB
C:\USERS\DILLO\DESKTOP\MXINT\COCOS2D\EXTERNAL\OPENSSL\PREBUILT\WIN32\LIBCRYPTO.LIB
C:\USERS\DILLO\DESKTOP\MXINT\COCOS2D\EXTERNAL\UV\PREBUILT\WIN32\UV_A.LIB
C:\USERS\DILLO\DESKTOP\MXINT\PROJ.WIN32\LIB\DEBUG\EXT_TINYXML2.LIB
C:\USERS\DILLO\DESKTOP\MXINT\PROJ.WIN32\LIB\DEBUG\EXT_XXHASH.LIB
C:\USERS\DILLO\DESKTOP\MXINT\PROJ.WIN32\LIB\DEBUG\EXT_XXTEA.LIB
C:\USERS\DILLO\DESKTOP\MXINT\PROJ.WIN32\LIB\DEBUG\EXT_CLIPPER.LIB
C:\USERS\DILLO\DESKTOP\MXINT\PROJ.WIN32\LIB\DEBUG\EXT_EDTAA3FUNC.LIB
C:\USERS\DILLO\DESKTOP\MXINT\PROJ.WIN32\LIB\DEBUG\EXT_CONVERTUTF.LIB
C:\USERS\DILLO\DESKTOP\MXINT\PROJ.WIN32\LIB\DEBUG\EXT_POLY2TRI.LIB
C:\USERS\DILLO\DESKTOP\MXINT\PROJ.WIN32\LIB\DEBUG\EXT_MD5.LIB
C:\USERS\DILLO\DESKTOP\MXINT\COCOS2D\EXTERNAL\CURL\PREBUILT\WIN32\LIBCURL.LIB
C:\USERS\DILLO\DESKTOP\MXINT\COCOS2D\EXTERNAL\PNG\PREBUILT\WIN32\LIBPNG.LIB
C:\USERS\DILLO\DESKTOP\MXINT\COCOS2D\EXTERNAL\WIN32-SPECIFIC\GLES\PREBUILT\GLEW32.LIB
C:\USERS\DILLO\DESKTOP\MXINT\COCOS2D\EXTERNAL\WIN32-SPECIFIC\ICON\PREBUILT\LIBICONV.LIB
C:\USERS\DILLO\DESKTOP\MXINT\COCOS2D\EXTERNAL\WIN32-SPECIFIC\MP3DECODER\PREBUILT\LIBMPG123.LIB
C:\USERS\DILLO\DESKTOP\MXINT\COCOS2D\EXTERNAL\WIN32-SPECIFIC\OGGDECODER\PREBUILT\LIBOGG.LIB
C:\USERS\DILLO\DESKTOP\MXINT\COCOS2D\EXTERNAL\WIN32-SPECIFIC\OGGDECODER\PREBUILT\LIBVORBIS.LIB
C:\USERS\DILLO\DESKTOP\MXINT\COCOS2D\EXTERNAL\WIN32-SPECIFIC\OGGDECODER\PREBUILT\LIBVORBISFILE.LIB
C:\USERS\DILLO\DESKTOP\MXINT\COCOS2D\EXTERNAL\WIN32-SPECIFIC\OPENALSOFT\PREBUILT\OPENAL32.LIB
C:\USERS\DILLO\DESKTOP\MXINT\COCOS2D\EXTERNAL\GLFW3\PREBUILT\WIN32\GLFW3.LIB
C:\USERS\DILLO\DESKTOP\MXINT\COCOS2D\EXTERNAL\WIN32-SPECIFIC\ZLIB\PREBUILT\LIBZLIB.LIB
C:\USERS\DILLO\DESKTOP\MXINT\PROJ.WIN32\LIB\DEBUG\EXT_UNZIP.LIB
C:\PROGRAM FILES (X86)\WINDOWS KITS\10\LIB\10.0.18362.0\UM\X86\WS2_32.LIB
C:\PROGRAM FILES (X86)\WINDOWS KITS\10\LIB\10.0.18362.0\UM\X86\USERENV.LIB
C:\PROGRAM FILES (X86)\WINDOWS KITS\10\LIB\10.0.18362.0\UM\X86\PSAPI.LIB
C:\PROGRAM FILES (X86)\WINDOWS KITS\10\LIB\10.0.18362.0\UM\X86\WINMM.LIB
C:\PROGRAM FILES (X86)\WINDOWS KITS\10\LIB\10.0.18362.0\UM\X86\VERSION.LIB
C:\PROGRAM FILES (X86)\WINDOWS KITS\10\LIB\10.0.18362.0\UM\X86\IPHLPAPI.LIB
C:\PROGRAM FILES (X86)\WINDOWS KITS\10\LIB\10.0.18362.0\UM\X86\OPENGL32.LIB
C:\PROGRAM FILES (X86)\WINDOWS KITS\10\LIB\10.0.18362.0\UM\X86\KERNEL32.LIB
C:\PROGRAM FILES (X86)\WINDOWS KITS\10\LIB\10.0.18362.0\UM\X86\USER32.LIB
C:\PROGRAM FILES (X86)\WINDOWS KITS\10\LIB\10.0.18362.0\UM\X86\GDI32.LIB
C:\PROGRAM FILES (X86)\WINDOWS KITS\10\LIB\10.0.18362.0\UM\X86\WINSPOOL.LIB
C:\PROGRAM FILES (X86)\WINDOWS KITS\10\LIB\10.0.18362.0\UM\X86\SHELL32.LIB
C:\PROGRAM FILES (X86)\WINDOWS KITS\10\LIB\10.0.18362.0\UM\X86\OLE32.LIB
C:\PROGRAM FILES (X86)\WINDOWS KITS\10\LIB\10.0.18362.0\UM\X86\OLEAUT32.LIB
C:\PROGRAM FILES (X86)\WINDOWS KITS\10\LIB\10.0.18362.0\UM\X86\UUID.LIB
C:\PROGRAM FILES (X86)\WINDOWS KITS\10\LIB\10.0.18362.0\UM\X86\COMDLG32.LIB
C:\PROGRAM FILES (X86)\WINDOWS KITS\10\LIB\10.0.18362.0\UM\X86\ADVAPI32.LIB
C:\USERS\DILLO\DESKTOP\MXINT\PROJ.WIN32\MXINT.DIR\DEBUG\GAME.RES
C:\USERS\DILLO\DESKTOP\MXINT\PROJ.WIN32\MXINT.DIR\DEBUG\APPDELEGATE.OBJ
C:\USERS\DILLO\DESKTOP\MXINT\PROJ.WIN32\MXINT.DIR\DEBUG\BIRD.OBJ
C:\USERS\DILLO\DESKTOP\MXINT\PROJ.WIN32\MXINT.DIR\DEBUG\GAMEOVERSCENE.OBJ
C:\USERS\DILLO\DESKTOP\MXINT\PROJ.WIN32\MXINT.DIR\DEBUG\GAMESCENE.OBJ
C:\USERS\DILLO\DESKTOP\MXINT\PROJ.WIN32\MXINT.DIR\DEBUG\MAINMENUSCENE.OBJ
C:\USERS\DILLO\DESKTOP\MXINT\PROJ.WIN32\MXINT.DIR\DEBUG\PIPE.OBJ
C:\USERS\DILLO\DESKTOP\MXINT\PROJ.WIN32\MXINT.DIR\DEBUG\SPLASHSCENE.OBJ
C:\USERS\DILLO\DESKTOP\MXINT\PROJ.WIN32\MXINT.DIR\DEBUG\MAIN.OBJ
C:\USERS\DILLO\DESKTOP\MXINT\PROJ.WIN32\MXINT.DIR\DEBUG\PRECHEADER.OBJ
C:\WINDOWS\SYSTEM32\TZRES.DLL
C:\WINDOWS\GLOBALIZATION\SORTING\SORTDEFAULT.NLS
C:\PROGRAM FILES (X86)\MICROSOFT VISUAL STUDIO\2019\COMMUNITY\VC\TOOLS\MSVC\14.28.29333\LIB\X86\MSVCPRTD.LIB
C:\PROGRAM FILES (X86)\MICROSOFT VISUAL STUDIO\2019\COMMUNITY\VC\TOOLS\MSVC\14.28.29333\LIB\X86\MSVCRTD.LIB
C:\PROGRAM FILES (X86)\MICROSOFT VISUAL STUDIO\2019\COMMUNITY\VC\TOOLS\MSVC\14.28.29333\LIB\X86\OLDNAMES.LIB
C:\PROGRAM FILES (X86)\MICROSOFT VISUAL STUDIO\2019\COMMUNITY\VC\TOOLS\MSVC\14.28.29333\LIB\X86\LIBCMT.LIB
C:\PROGRAM FILES (X86)\MICROSOFT VISUAL STUDIO\2019\COMMUNITY\VC\TOOLS\MSVC\14.28.29333\LIB\X86\MSVCRT.LIB
C:\PROGRAM FILES (X86)\MICROSOFT VISUAL STUDIO\2019\COMMUNITY\VC\TOOLS\MSVC\14.28.29333\LIB\X86\VCRUNTIMED.LIB
C:\PROGRAM FILES (X86)\WINDOWS KITS\10\LIB\10.0.18362.0\UCRT\X86\UCRTD.LIB
C:\USERS\DILLO\DESKTOP\MXINT\PROJ.WIN32\MXINT.DIR\DEBUG\VC142.PDB
